{
  "project_info": {
    "project_number": "648766907021",
    "firebase_url": "https://iatahackathon.firebaseio.com",
    "project_id": "iatahackathon",
    "storage_bucket": "iatahackathon.appspot.com"
  },
  "client": [
    {
      "client_info": {
        "mobilesdk_app_id": "1:648766907021:android:2b8f9e8733f32a29",
        "android_client_info": {
          "package_name": "com.example.hafthar.iatahackathon"
        }
      },
      "oauth_client": [
        {
          "client_id": "648766907021-uojnj3e6cq937mc0sgq1c3fo00qmbgvh.apps.googleusercontent.com",
          "client_type": 1,
          "android_info": {
            "package_name": "com.example.hafthar.iatahackathon",
            "certificate_hash": "837b3357c7df0c190659a6aad7d7b50c61f7c6a1"
          }
        },
        {
          "client_id": "648766907021-a8kehpsb446ov420ju6bc7lgh7c2hl50.apps.googleusercontent.com",
          "client_type": 3
        }
      ],
      "api_key": [
        {
          "current_key": "AIzaSyCpy49v1cX3fLCLPVZvUJhgxPmFlujMzc8"
        }
      ],
      "services": {
        "analytics_service": {
          "status": 1
        },
        "appinvite_service": {
          "status": 2,
          "other_platform_oauth_client": [
            {
              "client_id": "648766907021-a8kehpsb446ov420ju6bc7lgh7c2hl50.apps.googleusercontent.com",
              "client_type": 3
            }
          ]
        },
        "ads_service": {
          "status": 2
        }
      }
    }
  ],
  "configuration_version": "1"
}